------------------------------------------------------------------------
r37 | computerpunk | 2010-07-28 14:03:11 +0000 (Wed, 28 Jul 2010) | 1 line
Changed paths:
   A /tags/0.5.9.6 (from /trunk:36)

*Tagging.
------------------------------------------------------------------------
r36 | computerpunk | 2010-07-28 14:02:56 +0000 (Wed, 28 Jul 2010) | 1 line
Changed paths:
   M /trunk/WarBoard_Alliance/WarBoard_Alliance.lua

*Probable fix for WarBoard_Alliance.
------------------------------------------------------------------------
